{
  "$schema": "http://json-schema.org/draft-07/schema#",
  "title": "Person Schema",
  "required": [
    "name"
    ],
    "properties": {
      "name": {
        "$id": "#/properties/name",
        "type": "string",
        "title": "Name of the entity",
        "default": "",
        "examples": [
          "John Smith"
        ],
        "pattern": "^(.*)$"
      }
    }
}
